vcd/common.vcd
$date
	Thu May 19 11:18:08 2022
$end
$version
	GTKWave Analyzer v3.3.103 (w)1999-2019 BSI
$end
$timescale
	1fs
$end
$scope module test_bench $end
$var wire 1 " clk $end
$scope module uut $end
$scope module u_pc $end
$var wire 4 # q[3:0] $end
$upscope $end
$scope module u_mem_reg $end
$var wire 3 $ ar1[2:0] $end
$var wire 3 % ar2[2:0] $end
$var wire 16 & dr1[15:0] $end
$var wire 16 ' dr2[15:0] $end
$upscope $end
$scope module u_alu $end
$var wire 16 ( a[15:0] $end
$var wire 16 ) b[15:0] $end
$var wire 4 * sel[3:0] $end
$var wire 16 + r[15:0] $end
$upscope $end
$scope module u_acc $end
$var wire 16 , din[15:0] $end
$var wire 1 - load $end
$var wire 16 / dout[15:0] $end
$var wire 16 . reg[15:0] $end
$upscope $end
$upscope $end
$upscope $end
$enddefinitions $end
#0
$dumpvars
bu .
bx +
bu %
0"
b0 #
b0 &
bx )
bu *
bu (
b0 '
bx ,
bu $
bu /
u-
$end
#25000000
b0 %
1"
b1 #
bx *
b0 (
b0 $
#50000000
0"
#75000000
1"
b10 $
b0 )
b0 +
b11 %
b10 &
x-
b10 #
b11 '
b0 *
#100000000
0"
#125000000
1"
b1 *
b0 .
b11 )
b101 +
1-
b10 (
bx /
b11 #
b0 ,
#150000000
0"
#175000000
1"
b101 ,
b11 &
b11 $
b101 .
b10 %
b10 *
b100 #
b10 '
b1111111111111111 +
b0 /
#200000000
0"
#225000000
1"
b101 /
b0 %
b10 )
b1111111111111111 ,
b1111111111111111 .
b111 &
b111 $
b110 +
b101 #
b11 *
b0 '
b11 (
#250000000
0"
#275000000
1"
b111 (
b11 &
b1111111111111111 /
b110 .
b0 )
b110 ,
b110001 +
b11 $
b101 *
b110 #
#300000000
0"
#325000000
1"
b111 #
b111 %
b11 (
b110001 .
b101 &
b110 /
b110 *
b110001 ,
b111 '
b101 $
b0 +
#350000000
0"
#375000000
1"
b111 +
b0 &
b111 )
b1000 #
b0 .
b0 %
b101 (
b0 $
b111 *
b110001 /
b0 '
b0 ,
#400000000
0"
#425000000
1"
b111 ,
b1111111111111111 +
b111 .
b0 )
b1001 #
b0 (
b0 /
b1000 *
#450000000
0"
#475000000
1"
b0 *
b1111111111111111 .
b1111111111111111 ,
b0 +
b111 /
b1010 #
#500000000
0"
#525000000
1"
b1011 #
b0 ,
b0 .
b1111111111111111 /
#550000000
0"
#575000000
1"
b1100 #
#600000000
0"
#625000000
1"
b1101 #
bu %
bu $
#650000000
0"
#675000000
1"
b1110 #
bx )
bx *
bx +
#700000000
0"
#725000000
1"
b1111 #
bx ,
b0 /
x-
#750000000
0"
#775000000
1"
b0 #
#800000000
0"
#825000000
1"
b1 #
b0 $
b0 %
#850000000
0"
#875000000
1"
b11 %
b10 #
b10 &
b0 )
b0 +
b10 $
b0 *
b11 '
#900000000
0"
#925000000
1"
b11 )
b11 #
1-
b0 ,
b1 *
b101 +
bx /
b10 (
#950000000
0"
#975000000
1"
b10 '
b10 %
b100 #
b11 &
b0 /
b101 ,
b101 .
b11 $
b1111111111111111 +
b10 *
#1000000000
0"
#1025000000
1"
b11 *
b101 #
b11 (
b0 %
b0 '
b10 )
b110 +
b1111111111111111 ,
b111 &
b101 /
b111 $
b1111111111111111 .
#1050000000
0"
#1075000000
1"
b110 .
b101 *
b110 #
b111 (
b11 $
b110 ,
b0 )
b110001 +
b1111111111111111 /
b11 &
#1100000000
0"
#1125000000
1"
b101 &
b111 #
b111 '
b110 *
b111 %
b110001 .
b110 /
b110001 ,
b11 (
b101 $
b0 +
#1150000000
0"
#1175000000
1"
b111 +
b0 %
b0 &
b111 *
b1000 #
b0 '
b0 $
b0 ,
b0 .
b110001 /
b101 (
b111 )
#1200000000
0"
#1225000000
1"
b0 )
b1001 #
b1111111111111111 +
b1000 *
b0 (
b111 ,
b0 /
b111 .
#1250000000
0"
#1275000000
1"
b1111111111111111 .
b0 +
b1010 #
b111 /
b0 *
b1111111111111111 ,
#1300000000
0"
#1325000000
1"
b0 ,
b0 .
b1011 #
b1111111111111111 /
#1350000000
0"
#1375000000
1"
b1100 #
#1400000000
0"
#1425000000
1"
bu %
b1101 #
bu $
#1450000000
0"
#1475000000
1"
bx +
bx )
b1110 #
bx *
#1500000000
0"
#1525000000
1"
x-
b0 /
bx ,
b1111 #
#1550000000
0"
#1575000000
1"
b0 #
#1600000000
0"
#1625000000
1"
b1 #
b0 $
b0 %
#1650000000
0"
#1675000000
1"
b11 %
b10 #
b0 +
b0 *
b10 &
b10 $
b11 '
b0 )
#1700000000
0"
#1725000000
1"
b11 )
b1 *
b11 #
b101 +
1-
bx /
b0 ,
b10 (
#1750000000
0"
#1775000000
1"
b10 %
b1111111111111111 +
b10 *
b100 #
b101 ,
b10 '
b11 $
b11 &
b0 /
b101 .
#1800000000
0"
#1825000000
1"
b1111111111111111 .
b11 (
b10 )
b11 *
b110 +
b0 %
b101 /
b0 '
b101 #
b1111111111111111 ,
b111 &
b111 $
#1850000000
0"
#1875000000
1"
b11 $
b110001 +
b110 .
b101 *
b111 (
b0 )
b11 &
b1111111111111111 /
b110 ,
b110 #
#1900000000
0"
#1925000000
1"
b111 #
b11 (
b101 $
b110 *
b0 +
b110001 .
b110001 ,
b111 %
b111 '
b110 /
b101 &
#1950000000
0"
#1975000000
1"
b0 &
b111 +
b1000 #
b111 *
b101 (
b0 $
b110001 /
b0 ,
b111 )
b0 .
b0 '
b0 %
